Exponent,Basis_2_file_1,Basis_3_file_1,Notes_file_1,Basis_2_file_2,Basis_3_file_2,Notes_file_2,Basis_4_file_3,Basis_5_file_3,Notes_file_3,Basis_6_file_4,Basis_7_file_4,Notes_file_4
1.0,2.0,3.0,string:1,2.0,3.0,string:1,,,,6.0,7.0,string:1
2.0,4.0,9.0,string:2,4.0,9.0,string:2,16.0,25.0,string:2,,,
2.0,4.0,9.0,string:2,4.0,9.0,string:2,16.0,25.0,string:2,,,
3.0,8.0,27.0,string:3,8.0,27.0,string:3,64.0,125.0,string:3,216.0,343.0,string:3
4.0,16.0,81.0,string:4,16.0,81.0,string:4,256.0,625.0,string:4,,,
5.0,32.0,243.0,string:5,32.0,243.0,string:5,1024.0,3125.0,string:5,7776.0,16807.0,string:5
6.0,64.0,729.0,string:6,64.0,729.0,string:6,4096.0,15625.0,string:6,,,
7.0,,,,128.0,2187.0,string:7,16384.0,78125.0,string:7,279936.0,823543.0,string:7
8.0,,,,256.0,6561.0,string:8,65536.0,390625.0,string:8,,,
9.0,,,,512.0,19683.0,string:9,262144.0,1953125.0,string:9,10077696.0,40353607.0,string:9
10.0,,,,,,,1048576.0,9765625.0,string:10,,,
11.0,,,,,,,4194304.0,48828125.0,string:11,362797056.0,1977326743.0,string:11
12.0,,,,,,,16777216.0,244140625.0,string:12,,,
13.0,,,,,,,67108864.0,1220703125.0,string:13,13060694016.0,96889010407.0,string:13
14.0,,,,,,,268435456.0,6103515625.0,string:14,,,
15.0,,,,,,,1073741824.0,30517578125.0,string:15,470184984576.0,4747561509943.0,string:15
16.0,,,,,,,4294967296.0,152587890625.0,string:16,,,
17.0,,,,,,,17179869184.0,762939453125.0,string:17,16926659444736.0,232630513987207.0,string:17
18.0,,,,,,,68719476736.0,3814697265625.0,string:18,,,
19.0,,,,,,,274877906944.0,19073486328125.0,string:19,,,
