sep=;
Kontonummer;Kartennummer;Konto-/Karteninhaber;Einkaufsdatum;Buchungstext;Branche;Betrag;Originalwährung;Kurs;Währung;Belastung;Gutschrift;Buchung
xxxx xxxx xxxx 9614;;Dxx Bxx ;25.01.2019;6039 JAHRESPREIS KREDITKARTE; ;100.00;CHF; ;CHF;100.00; ;25.01.2019
xxxx xxxx xxxx 9614;xxxx xxxx xxxx 5214;Dxx Bxx ;03.01.2019;NETFLIX.COM              866-579-7172 NLD;Telegramme;19.90;CHF; ;CHF;19.90; ;04.01.2019

;;;;Total pro Währung;;;;;;;;Total
;;;;Total Kartenbuchungen;;;;;CHF;119.90;0.00;-119.90;
