sep=;
Kontonummer;Kartennummer;Konto-/Karteninhaber;Einkaufsdatum;Buchungstext;Branche;Betrag;Originalwährung;Kurs;Währung;Belastung;Gutschrift;Buchung
xxxx xxxx xxxx 9614;xxxx xxxx xxxx 5214;Dxx Bxx ;30.05.2018;RESTAURANT BANG YAI      CAROUGE GE   CHE;Restaurants, Bars;25.00;CHF; ;CHF;25.00; ;31.05.2018
xxxx xxxx xxxx 9614;xxxx xxxx xxxx 5214;Dxx Bxx ;30.05.2018;Coop-2263 Carouge        Grand-Lancy  CHE;Lebensmittelgeschäft;10.95;CHF; ;CHF;10.95; ;31.05.2018
xxxx xxxx xxxx 9614;xxxx xxxx xxxx 5214;Dxx Bxx ;29.05.2018;Restaurant La Ruota      Carouge GE   CHE;Restaurants, Bars;20.00;CHF; ;CHF;20.00; ;30.05.2018
xxxx xxxx xxxx 9614;xxxx xxxx xxxx 5214;Dxx Bxx ;29.05.2018;Coop-2263 Carouge        Grand-Lancy  CHE;Lebensmittelgeschäft;6.35;CHF; ;CHF;6.35; ;30.05.2018
xxxx xxxx xxxx 9614;xxxx xxxx xxxx 5214;Dxx Bxx ;28.05.2018;Coop-2263 Carouge        Grand-Lancy  CHE;Lebensmittelgeschäft;14.70;CHF; ;CHF;14.70; ;29.05.2018
xxxx xxxx xxxx 9614;xxxx xxxx xxxx 5214;Dxx Bxx ;28.05.2018;SBB CFF FFS Mobile TicketBern         CHE;Transportunternehmen;89.00;CHF; ;CHF;89.00; ;29.05.2018
xxxx xxxx xxxx 9614;xxxx xxxx xxxx 5214;Dxx Bxx ;28.05.2018;Migros M Cornavin Gare   Geneve       CHE;Lebensmittelgeschäft;9.45;CHF; ;CHF;9.45; ;29.05.2018
xxxx xxxx xxxx 9614;xxxx xxxx xxxx 5214;Dxx Bxx ;25.05.2018;Hotel Ramada Encore      Carouge GE   CHE;Hotel;546.90;CHF; ;CHF;546.90; ;28.05.2018
xxxx xxxx xxxx 9614;xxxx xxxx xxxx 5214;Dxx Bxx ;25.05.2018;Migros M Cornavin Gare   Geneve       CHE;Lebensmittelgeschäft;8.50;CHF; ;CHF;8.50; ;28.05.2018
xxxx xxxx xxxx 9614;xxxx xxxx xxxx 5214;Dxx Bxx ;25.05.2018;SBB CFF FFS Mobile TicketBern         CHE;Transportunternehmen;85.00;CHF; ;CHF;85.00; ;28.05.2018
xxxx xxxx xxxx 9614;xxxx xxxx xxxx 5214;Dxx Bxx ;24.05.2018;Coop-2263 Carouge        Grand-Lancy  CHE;Lebensmittelgeschäft;5.30;CHF; ;CHF;5.30; ;25.05.2018
xxxx xxxx xxxx 9614;xxxx xxxx xxxx 5214;Dxx Bxx ;24.05.2018;RESTAURANT BANG YAI      CAROUGE GE   CHE;Restaurants, Bars;25.00;CHF; ;CHF;25.00; ;28.05.2018
xxxx xxxx xxxx 9614;xxxx xxxx xxxx 5214;Dxx Bxx ;23.05.2018;Restaurant La Ruota      Carouge GE   CHE;Restaurants, Bars;20.00;CHF; ;CHF;20.00; ;24.05.2018
xxxx xxxx xxxx 9614;xxxx xxxx xxxx 5214;Dxx Bxx ;23.05.2018;Coop-2263 Carouge        Grand-Lancy  CHE;Lebensmittelgeschäft;5.30;CHF; ;CHF;5.30; ;24.05.2018
xxxx xxxx xxxx 9614;xxxx xxxx xxxx 5214;Dxx Bxx ;22.05.2018;SBB CFF FFS Mobile TicketBern         CHE;Transportunternehmen;89.00;CHF; ;CHF;89.00; ;23.05.2018
xxxx xxxx xxxx 9614;xxxx xxxx xxxx 5214;Dxx Bxx ;22.05.2018;Migros M Cornavin Gare   Geneve       CHE;Lebensmittelgeschäft;5.75;CHF; ;CHF;5.75; ;23.05.2018
xxxx xxxx xxxx 9614;xxxx xxxx xxxx 5214;Dxx Bxx ;22.05.2018;Coop-2263 Carouge        Grand-Lancy  CHE;Lebensmittelgeschäft;13.00;CHF; ;CHF;13.00; ;23.05.2018
xxxx xxxx xxxx 9614;xxxx xxxx xxxx 5214;Dxx Bxx ;22.05.2018;RESTAURANT BANG YAI      CAROUGE GE   CHE;Restaurants, Bars;25.00;CHF; ;CHF;25.00; ;23.05.2018
xxxx xxxx xxxx 9614;xxxx xxxx xxxx 5214;Dxx Bxx ;21.05.2018;SBB CFF FFS Mobile TicketBern         CHE;Transportunternehmen;15.00;CHF; ;CHF;15.00; ;22.05.2018
xxxx xxxx xxxx 9614;xxxx xxxx xxxx 5214;Dxx Bxx ;21.05.2018;ST MARGRETHEN SBB        ST MARGRETHE CHE;Eisenbahnen;13.00;CHF; ;CHF;13.00; ;22.05.2018
xxxx xxxx xxxx 9614;xxxx xxxx xxxx 5214;Dxx Bxx ;19.05.2018;SBB CFF FFS Mobile TicketBern         CHE;Transportunternehmen;15.00;CHF; ;CHF;15.00; ;22.05.2018
xxxx xxxx xxxx 9614;xxxx xxxx xxxx 5214;Dxx Bxx ;18.05.2018;Hotel Ramada Encore      Carouge GE   CHE;Hotel;831.90;CHF; ;CHF;831.90; ;22.05.2018
xxxx xxxx xxxx 9614;xxxx xxxx xxxx 5214;Dxx Bxx ;18.05.2018;SBB CFF FFS Mobile TicketBern         CHE;Transportunternehmen;89.00;CHF; ;CHF;89.00; ;22.05.2018
xxxx xxxx xxxx 9614;xxxx xxxx xxxx 5214;Dxx Bxx ;18.05.2018;Migros M Cornavin Gare   Geneve       CHE;Lebensmittelgeschäft;3.75;CHF; ;CHF;3.75; ;22.05.2018
xxxx xxxx xxxx 9614;xxxx xxxx xxxx 5214;Dxx Bxx ;18.05.2018;Coop-2238 Wint. St       Winterthur   CHE;Lebensmittelgeschäft;9.10;CHF; ;CHF;9.10; ;22.05.2018
xxxx xxxx xxxx 9614;xxxx xxxx xxxx 5214;Dxx Bxx ;17.05.2018;Coop-2263 Carouge        Grand-Lancy  CHE;Lebensmittelgeschäft;9.05;CHF; ;CHF;9.05; ;18.05.2018
xxxx xxxx xxxx 9614;xxxx xxxx xxxx 5214;Dxx Bxx ;17.05.2018;Restaurant La Ruota      Carouge GE   CHE;Restaurants, Bars;20.00;CHF; ;CHF;20.00; ;18.05.2018
xxxx xxxx xxxx 9614;xxxx xxxx xxxx 5214;Dxx Bxx ;16.05.2018;Molino La Praille        Carouge GE   CHE;Restaurants, Bars;25.50;CHF; ;CHF;25.50; ;17.05.2018
xxxx xxxx xxxx 9614;xxxx xxxx xxxx 5214;Dxx Bxx ;16.05.2018;TPG J.Pictet-Thellusson  Carouge GE   CHE;Transportunternehmen;8.00;CHF; ;CHF;8.00; ;17.05.2018
xxxx xxxx xxxx 9614;xxxx xxxx xxxx 5214;Dxx Bxx ;16.05.2018;RESTAURANT BANG YAI      CAROUGE GE   CHE;Restaurants, Bars;25.00;CHF; ;CHF;25.00; ;17.05.2018
xxxx xxxx xxxx 9614;xxxx xxxx xxxx 5214;Dxx Bxx ;15.05.2018;Frankfurt (Main) Hbf     Frankfurt am DEU;Transportunternehmen;9.55;EUR; 1.2263;CHF;11.71; ;16.05.2018
xxxx xxxx xxxx 9614;xxxx xxxx xxxx 5214;Dxx Bxx ;15.05.2018;TPG Croisee de Confignon Geneve 15 AerCHE;Transportunternehmen;2.00;CHF; ;CHF;2.00; ;17.05.2018
xxxx xxxx xxxx 9614;xxxx xxxx xxxx 5214;Dxx Bxx ;15.05.2018;Selecta Deutschland GmbH Frankfurt    DEU;Lebensmittelgeschäft;3.00;EUR; 1.2263;CHF;3.68; ;16.05.2018
xxxx xxxx xxxx 9614;xxxx xxxx xxxx 5214;Dxx Bxx ;14.05.2018;SBB CFF FFS Mobile TicketBern         CHE;Transportunternehmen;38.50;CHF; ;CHF;38.50; ;15.05.2018
xxxx xxxx xxxx 9614;xxxx xxxx xxxx 5214;Dxx Bxx ;14.05.2018;Migros M Bhof ProvisoriumBasel        CHE;Lebensmittelgeschäft;2.30;CHF; ;CHF;2.30; ;15.05.2018
xxxx xxxx xxxx 9614;xxxx xxxx xxxx 5214;Dxx Bxx ;14.05.2018;Frankfurt (Main) Hbf     Frankfurt am DEU;Transportunternehmen;5.35;EUR; 1.2331;CHF;6.60; ;15.05.2018
xxxx xxxx xxxx 9614;xxxx xxxx xxxx 5214;Dxx Bxx ;13.05.2018;SBB CFF FFS Mobile TicketBern         CHE;Transportunternehmen;15.00;CHF; ;CHF;15.00; ;14.05.2018
xxxx xxxx xxxx 9614;xxxx xxxx xxxx 5214;Dxx Bxx ;10.05.2018;HOTEL FORTY FOUR         FRANKFURT    DEU;Hotel;132.00;EUR; 1.2316;CHF;162.57; ;11.05.2018
xxxx xxxx xxxx 9614;xxxx xxxx xxxx 5214;Dxx Bxx ;09.05.2018;Hotel Ramada Encore      Carouge GE   CHE;Hotel;364.60;CHF; ;CHF;364.60; ;11.05.2018
xxxx xxxx xxxx 9614;xxxx xxxx xxxx 5214;Dxx Bxx ;09.05.2018;SBB CFF FFS Mobile TicketBern         CHE;Transportunternehmen;99.00;CHF; ;CHF;99.00; ;11.05.2018
xxxx xxxx xxxx 9614;xxxx xxxx xxxx 5214;Dxx Bxx ;09.05.2018;Migros M Cornavin Gare   Geneve       CHE;Lebensmittelgeschäft;8.25;CHF; ;CHF;8.25; ;11.05.2018
xxxx xxxx xxxx 9614;xxxx xxxx xxxx 5214;Dxx Bxx ;08.05.2018;Restaurant La Ruota      Carouge GE   CHE;Restaurants, Bars;20.00;CHF; ;CHF;20.00; ;09.05.2018
xxxx xxxx xxxx 9614;;Dxx Bxx ;07.05.2018;2013 BESR-ZAHLUNG (AUT); ;2246.30;CHF; ;CHF; ;2246.30;08.05.2018
xxxx xxxx xxxx 9614;xxxx xxxx xxxx 5214;Dxx Bxx ;07.05.2018;RESTAURANT BANG YAI      CAROUGE GE   CHE;Restaurants, Bars;25.00;CHF; ;CHF;25.00; ;08.05.2018
xxxx xxxx xxxx 9614;xxxx xxxx xxxx 5214;Dxx Bxx ;07.05.2018;SBB CFF FFS Mobile TicketBern         CHE;Transportunternehmen;89.00;CHF; ;CHF;89.00; ;08.05.2018
xxxx xxxx xxxx 9614;xxxx xxxx xxxx 5214;Dxx Bxx ;04.05.2018;Hotel Ramada Encore      Carouge GE   CHE;Hotel;729.20;CHF; ;CHF;729.20; ;07.05.2018
xxxx xxxx xxxx 9614;xxxx xxxx xxxx 5214;Dxx Bxx ;04.05.2018;SBB CFF FFS Mobile TicketBern         CHE;Transportunternehmen;85.00;CHF; ;CHF;85.00; ;07.05.2018
xxxx xxxx xxxx 9614;xxxx xxxx xxxx 5214;Dxx Bxx ;03.05.2018;RESTAURANT BANG YAI      CAROUGE GE   CHE;Restaurants, Bars;25.00;CHF; ;CHF;25.00; ;04.05.2018
xxxx xxxx xxxx 9614;xxxx xxxx xxxx 5214;Dxx Bxx ;02.05.2018;Restaurant La Ruota      Carouge GE   CHE;Restaurants, Bars;20.00;CHF; ;CHF;20.00; ;03.05.2018
xxxx xxxx xxxx 9614;xxxx xxxx xxxx 5214;Dxx Bxx ;01.05.2018;Restaurant La Ruota      Carouge GE   CHE;Restaurants, Bars;20.00;CHF; ;CHF;20.00; ;02.05.2018
xxxx xxxx xxxx 9614;xxxx xxxx xxxx 5214;Dxx Bxx ;30.04.2018;RESTAURANT BANG YAI      CAROUGE GE   CHE;Restaurants, Bars;25.00;CHF; ;CHF;25.00; ;02.05.2018
xxxx xxxx xxxx 9614;xxxx xxxx xxxx 5214;Dxx Bxx ;30.04.2018;SBB CFF FFS Mobile TicketBern         CHE;Transportunternehmen;89.00;CHF; ;CHF;89.00; ;02.05.2018
xxxx xxxx xxxx 9614;xxxx xxxx xxxx 5214;Dxx Bxx ;30.04.2018;FLUEGEDE                 Leipzig      DEU;Reisebüro;241.93;EUR; 1.2333;CHF;298.38; ;02.05.2018

;;;;Total pro Währung;;;;;;;;Total
;;;;Total Kartenbuchungen;;;;;CHF;4208.29;2246.30;-1961.99;
