sep=;
Kontonummer;Kartennummer;Konto-/Karteninhaber;Einkaufsdatum;Buchungstext;Branche;Betrag;Originalwährung;Kurs;Währung;Belastung;Gutschrift;Buchung
xxxx xxxx xxxx 9614;xxxx xxxx xxxx 5214;Dxx Bxx ;27.09.2018;Denner GE-Plainpalais    Geneve       CHE;Lebensmittelgeschäft;32.95;CHF; ;CHF;32.95; ;28.09.2018
xxxx xxxx xxxx 9614;xxxx xxxx xxxx 5214;Dxx Bxx ;27.09.2018;Restaurant La Ruota      Carouge GE   CHE;Restaurants, Bars;20.00;CHF; ;CHF;20.00; ;28.09.2018
xxxx xxxx xxxx 9614;xxxx xxxx xxxx 5214;Dxx Bxx ;26.09.2018;Restaurant Bang Yai      Carouge      CHE;Restaurants, Bars;26.00;CHF; ;CHF;26.00; ;27.09.2018
xxxx xxxx xxxx 9614;xxxx xxxx xxxx 5214;Dxx Bxx ;25.09.2018;Restaurant Bang Yai      Carouge      CHE;Restaurants, Bars;24.00;CHF; ;CHF;24.00; ;26.09.2018
xxxx xxxx xxxx 9614;xxxx xxxx xxxx 5214;Dxx Bxx ;25.09.2018;Denner GE-Plainpalais    Geneve       CHE;Lebensmittelgeschäft;4.70;CHF; ;CHF;4.70; ;26.09.2018
xxxx xxxx xxxx 9614;xxxx xxxx xxxx 5214;Dxx Bxx ;24.09.2018;Edward's Acacias         Les Acacias  CHE;Restaurants, Bars;11.10;CHF; ;CHF;11.10; ;25.09.2018
xxxx xxxx xxxx 9614;xxxx xxxx xxxx 5214;Dxx Bxx ;24.09.2018;Denner GE-Plainpalais    Geneve       CHE;Lebensmittelgeschäft;15.95;CHF; ;CHF;15.95; ;25.09.2018
xxxx xxxx xxxx 9614;xxxx xxxx xxxx 5214;Dxx Bxx ;21.09.2018;Coop-1961 Carouge        Carouge GE   CHE;Lebensmittelgeschäft;8.20;CHF; ;CHF;8.20; ;24.09.2018
xxxx xxxx xxxx 9614;xxxx xxxx xxxx 5214;Dxx Bxx ;21.09.2018;Coop-1960 Augustin       Geneve       CHE;Lebensmittelgeschäft;41.05;CHF; ;CHF;41.05; ;24.09.2018
xxxx xxxx xxxx 9614;xxxx xxxx xxxx 5214;Dxx Bxx ;20.09.2018;Denner GE-Plainpalais    Geneve       CHE;Lebensmittelgeschäft;15.30;CHF; ;CHF;15.30; ;21.09.2018
xxxx xxxx xxxx 9614;xxxx xxxx xxxx 5214;Dxx Bxx ;20.09.2018;Restaurant La Ruota      Carouge GE   CHE;Restaurants, Bars;19.00;CHF; ;CHF;19.00; ;21.09.2018
xxxx xxxx xxxx 9614;xxxx xxxx xxxx 5214;Dxx Bxx ;19.09.2018;Coop-1961 Carouge        Carouge GE   CHE;Lebensmittelgeschäft;7.15;CHF; ;CHF;7.15; ;20.09.2018
xxxx xxxx xxxx 9614;xxxx xxxx xxxx 5214;Dxx Bxx ;18.09.2018;Restaurant Bang Yai      Carouge      CHE;Restaurants, Bars;29.00;CHF; ;CHF;29.00; ;19.09.2018
xxxx xxxx xxxx 9614;xxxx xxxx xxxx 5214;Dxx Bxx ;18.09.2018;Denner GE-Plainpalais    Geneve       CHE;Lebensmittelgeschäft;22.15;CHF; ;CHF;22.15; ;19.09.2018
xxxx xxxx xxxx 9614;xxxx xxxx xxxx 5214;Dxx Bxx ;17.09.2018;Coop-1961 Carouge        Carouge GE   CHE;Lebensmittelgeschäft;9.25;CHF; ;CHF;9.25; ;18.09.2018
xxxx xxxx xxxx 9614;xxxx xxxx xxxx 5214;Dxx Bxx ;16.09.2018;AIRBNB * HM842EDKYY      303-080-8380 GBR;Hotel;648.26;EUR; 1.1637;CHF;754.38; ;17.09.2018
xxxx xxxx xxxx 9614;xxxx xxxx xxxx 5214;Dxx Bxx ;15.09.2018;Coop-1960 Augustin       Geneve       CHE;Lebensmittelgeschäft;5.40;CHF; ;CHF;5.40; ;17.09.2018
xxxx xxxx xxxx 9614;xxxx xxxx xxxx 5214;Dxx Bxx ;15.09.2018;Coop-1960 Augustin       Geneve       CHE;Lebensmittelgeschäft;76.90;CHF; ;CHF;76.90; ;17.09.2018
xxxx xxxx xxxx 9614;xxxx xxxx xxxx 5214;Dxx Bxx ;14.09.2018;Denner GE-Plainpalais    Geneve       CHE;Lebensmittelgeschäft;15.15;CHF; ;CHF;15.15; ;17.09.2018
xxxx xxxx xxxx 9614;xxxx xxxx xxxx 5214;Dxx Bxx ;13.09.2018;Molino Molard GE         Geneve       CHE;Restaurants, Bars;85.00;CHF; ;CHF;85.00; ;14.09.2018
xxxx xxxx xxxx 9614;xxxx xxxx xxxx 5214;Dxx Bxx ;13.09.2018;Denner GE-Plainpalais    Geneve       CHE;Lebensmittelgeschäft;13.85;CHF; ;CHF;13.85; ;14.09.2018
xxxx xxxx xxxx 9614;xxxx xxxx xxxx 5214;Dxx Bxx ;12.09.2018;LA FUMISTERIE            CAROUGE GE   CHE;Restaurants, Bars;24.00;CHF; ;CHF;24.00; ;13.09.2018
xxxx xxxx xxxx 9614;;Dxx Bxx ;11.09.2018;2013 BESR-ZAHLUNG (AUT); ;4034.20;CHF; ;CHF; ;4034.20;12.09.2018
xxxx xxxx xxxx 9614;xxxx xxxx xxxx 5214;Dxx Bxx ;11.09.2018;Denner GE-Plainpalais    Geneve       CHE;Lebensmittelgeschäft;12.15;CHF; ;CHF;12.15; ;12.09.2018
xxxx xxxx xxxx 9614;xxxx xxxx xxxx 5214;Dxx Bxx ;10.09.2018;MYPOSTCARD.COM           BERLIN       DEU;Bürobedarf u. Zubehör,Druck-/Schreibp.;19.90;EUR; 1.1662;CHF;23.21; ;11.09.2018
xxxx xxxx xxxx 9614;xxxx xxxx xxxx 5214;Dxx Bxx ;10.09.2018;SBB CFF FFS Ticket Shop  Bern         CHE;Transportunternehmen;70.00;CHF; ;CHF;70.00; ;11.09.2018
xxxx xxxx xxxx 9614;xxxx xxxx xxxx 5214;Dxx Bxx ;10.09.2018;SBB CFF FFS Mobile TicketBern         CHE;Transportunternehmen;84.00;CHF; ;CHF;84.00; ;11.09.2018
xxxx xxxx xxxx 9614;xxxx xxxx xxxx 5214;Dxx Bxx ;10.09.2018;Migros MM Plainpalais    Geneve       CHE;Lebensmittelgeschäft;5.90;CHF; ;CHF;5.90; ;11.09.2018
xxxx xxxx xxxx 9614;xxxx xxxx xxxx 5214;Dxx Bxx ;09.09.2018;SBB CFF FFS Mobile TicketBern         CHE;Transportunternehmen;15.00;CHF; ;CHF;15.00; ;10.09.2018
xxxx xxxx xxxx 9614;xxxx xxxx xxxx 5214;Dxx Bxx ;09.09.2018;Ocean Five GmbH          Winterthur   CHE;Restaurants, Bars;69.00;CHF; ;CHF;69.00; ;10.09.2018
xxxx xxxx xxxx 9614;xxxx xxxx xxxx 5214;Dxx Bxx ;05.09.2018;SBB CFF FFS Mobile TicketBern         CHE;Transportunternehmen;98.00;CHF; ;CHF;98.00; ;06.09.2018
xxxx xxxx xxxx 9614;xxxx xxxx xxxx 5214;Dxx Bxx ;05.09.2018;Migros M Cornavin Gare   Geneve       CHE;Lebensmittelgeschäft;2.45;CHF; ;CHF;2.45; ;06.09.2018
xxxx xxxx xxxx 9614;xxxx xxxx xxxx 5214;Dxx Bxx ;04.09.2018;Migros MM Plainpalais    Geneve       CHE;Lebensmittelgeschäft;13.65;CHF; ;CHF;13.65; ;05.09.2018
xxxx xxxx xxxx 9614;xxxx xxxx xxxx 5214;Dxx Bxx ;03.09.2018;Denner GE-Plainpalais    Geneve       CHE;Lebensmittelgeschäft;19.55;CHF; ;CHF;19.55; ;04.09.2018
xxxx xxxx xxxx 9614;xxxx xxxx xxxx 5214;Dxx Bxx ;03.09.2018;NETFLIX.COM              866-579-7172 NLD;Telegramme;19.90;CHF; ;CHF;19.90; ;04.09.2018
xxxx xxxx xxxx 9614;xxxx xxxx xxxx 5214;Dxx Bxx ;31.08.2018;Denner GE-Plainpalais    Geneve       CHE;Lebensmittelgeschäft;34.65;CHF; ;CHF;34.65; ;03.09.2018
xxxx xxxx xxxx 9614;xxxx xxxx xxxx 5214;Dxx Bxx ;31.08.2018;BIKE PASSION GENEVE      GENEVE       CHE;Fahrradhandel;11.00;CHF; ;CHF;11.00; ;03.09.2018
xxxx xxxx xxxx 9614;xxxx xxxx xxxx 5214;Dxx Bxx ;31.08.2018;PRESSING 5ASEC           GENEVE       CHE;Chemische Reinigung;19.50;CHF; ;CHF;19.50; ;03.09.2018
xxxx xxxx xxxx 9614;xxxx xxxx xxxx 5214;Dxx Bxx ;31.08.2018;Coop-1961 Carouge        Carouge GE   CHE;Lebensmittelgeschäft;7.55;CHF; ;CHF;7.55; ;03.09.2018
xxxx xxxx xxxx 9614;xxxx xxxx xxxx 5214;Dxx Bxx ;31.08.2018;Migros MM Plainpalais    Geneve       CHE;Lebensmittelgeschäft;15.25;CHF; ;CHF;15.25; ;03.09.2018

;;;;Total pro Währung;;;;;;;;Total
;;;;Total Kartenbuchungen;;;;;CHF;1781.24;4034.20;2252.96;
