LL-itemsMale:	 7 9 11 18 19 23 28 30 35 36 37 38 39 41 44 45 46 
LM-itemsMale:	 10 13 16 20 22 26 32 33 40 42 
ML-itemsMale:	 14 49 
MM-itemsMale:	 1 3 4 5 6 8 12 15 17 21 24 25 27 29 31 34 43 47 48 
HH-itemsMale:	 2 
