"Date","Bénéficiaire","Numéro de compte","Type de transaction","Référence de paiement","Catégorie","Montant (EUR)","Montant (Devise étrangère)","Sélectionnez la devise étrangère","Taux de conversion"
"2018-10-02","FLUEGEDE","","Paiement par MasterCard","","Voyages & Vacances","-0.01","-0.01","EUR","1.0"
"2018-10-02","FLUEGEDE","","Paiement par MasterCard","","Voyages & Vacances","0.01","0.01","EUR","1.0"
"2018-10-02","Invia Flights Germany","","Paiement par MasterCard","","Voyages & Vacances","-39.98","-39.98","EUR","1.0"
"2018-10-03","Nurflug.de GmbH","","Paiement par MasterCard","","Voyages & Vacances","-231.02","-231.02","EUR","1.0"
"2018-10-21","WORKEAT SRL","","Paiement par carte Maestro","","Restaurants & Bars","-4.0","-4.0","EUR","1.0"
"2018-10-22","AUTOGRILL 7108","","Paiement par carte Maestro","","Restaurants & Bars","-7.9","-7.9","EUR","1.0"
"2018-10-27","AU FIDELE BERGE","","Paiement par carte Maestro","","Courses & Alimentation","-9.6","-9.6","EUR","1.0"
"2018-10-29","N26 Bank","","Revenus","N26 Business cashback Q3","Revenus","0.01","","",""
"2018-10-30","WWW.LANGUAGEPOD101.COM","","Paiement par MasterCard","","Éducation","-0.88","-1.0","USD","0.87"
