Name;Rounding;DayCount;SpotDays;ScopeIsFirstPackage
AUD;2;ACT/365;2;TRUE
CHF;2;ACT/360;2;TRUE
GBP;2;ACT/365;2;FALSE
EUR;2;ACT/360;2;TRUE
COP;2;ACT/360;2;FALSE
CLP;0;ACT/365;2;FALSE
USD;2;ACT/360;2;TRUE
