\relax 
\select@language{english}
\@writefile{toc}{\select@language{english}}
\@writefile{lof}{\select@language{english}}
\@writefile{lot}{\select@language{english}}
\@writefile{toc}{\contentsline {section}{\numberline {1}Data}{1}}
\newlabel{sec:data1}{{1}{1}}
\@writefile{toc}{\contentsline {section}{\numberline {2}The fPortfolio}{1}}
\@writefile{toc}{\contentsline {subsection}{\numberline {2.1}Portfolio specifications}{1}}
\newlabel{sec:data1}{{2.1}{1}}
\@writefile{toc}{\contentsline {subsection}{\numberline {2.2}Portfolio data}{2}}
\@writefile{toc}{\contentsline {subsection}{\numberline {2.3}Portfolio constraints}{3}}
\@writefile{toc}{\contentsline {section}{\numberline {3}Visualization of feasible set and portfolios}{6}}
\newlabel{sec:data1}{{3}{6}}
\newlabel{sec:results1}{{3}{7}}
\@writefile{lof}{\contentsline {figure}{\numberline {1}{\ignorespaces Visualization of the feasible set.}}{7}}
\newlabel{fig:results}{{1}{7}}
\@writefile{toc}{\contentsline {section}{\numberline {4}Changing the Solver}{7}}
\newlabel{sec:data1}{{4}{7}}
\newlabel{sec:results1}{{4}{8}}
\@writefile{lof}{\contentsline {figure}{\numberline {2}{\ignorespaces Visualization of the feasible set with the different portfolios.}}{8}}
\newlabel{fig:results}{{2}{8}}
\@writefile{toc}{\contentsline {section}{\numberline {5}Backtesting}{9}}
\newlabel{sec:data1}{{5}{9}}
\newlabel{sec:results1}{{5}{9}}
\@writefile{lof}{\contentsline {figure}{\numberline {3}{\ignorespaces Visualization.}}{9}}
\newlabel{fig:results}{{3}{9}}
