\relax 
\select@language{english}
\@writefile{toc}{\select@language{english}}
\@writefile{lof}{\select@language{english}}
\@writefile{lot}{\select@language{english}}
\@writefile{toc}{\contentsline {section}{\numberline {1}Data}{1}}
\newlabel{sec:data1}{{1}{1}}
\@writefile{toc}{\contentsline {section}{\numberline {2}The equal weights portfolio (EWP)}{1}}
\newlabel{sec:data1}{{2}{1}}
\newlabel{sec:results1}{{2}{2}}
\@writefile{toc}{\contentsline {section}{\numberline {3}NLP Solvers}{2}}
\newlabel{sec:data1}{{3}{2}}
\@writefile{lof}{\contentsline {figure}{\numberline {1}{\ignorespaces Risk-Reward-Plane of different portfolios.}}{3}}
\newlabel{fig:results}{{1}{3}}
\newlabel{sec:results1}{{3}{5}}
\@writefile{lof}{\contentsline {figure}{\numberline {2}{\ignorespaces Risk-Reward-Plane of different portfolios and min-max scenarios.}}{5}}
\newlabel{fig:results}{{2}{5}}
\@writefile{toc}{\contentsline {section}{\numberline {4}Feasible set: Optimizing}{5}}
\newlabel{sec:data1}{{4}{5}}
\newlabel{sec:results1}{{4}{6}}
\@writefile{lof}{\contentsline {figure}{\numberline {3}{\ignorespaces Visualization of the feasible set.}}{6}}
\newlabel{fig:results}{{3}{6}}
\@writefile{toc}{\contentsline {section}{\numberline {5}Feasible Set: Pairwise}{6}}
\newlabel{sec:data1}{{5}{6}}
\newlabel{sec:results1}{{5}{8}}
\@writefile{lof}{\contentsline {figure}{\numberline {4}{\ignorespaces Visualization of the feasible set.}}{9}}
\newlabel{fig:results}{{4}{9}}
\@writefile{toc}{\contentsline {section}{\numberline {6}Application of algorithm}{9}}
\newlabel{sec:data1}{{6}{9}}
\newlabel{sec:results1}{{6}{10}}
\@writefile{lof}{\contentsline {figure}{\numberline {5}{\ignorespaces Visualization of the feasible set.}}{10}}
\newlabel{fig:results}{{5}{10}}
