\relax 
\select@language{english}
\@writefile{toc}{\select@language{english}}
\@writefile{lof}{\select@language{english}}
\@writefile{lot}{\select@language{english}}
\@writefile{toc}{\contentsline {section}{\numberline {1}Data}{1}}
\newlabel{sec:data1}{{1}{1}}
\newlabel{sec:results1}{{1}{1}}
\@writefile{lof}{\contentsline {figure}{\numberline {1}{\ignorespaces On the left are the return and on the right the log-return time series of the Italian GDP between 1970 and 1999.}}{1}}
\newlabel{fig:results}{{1}{1}}
\@writefile{toc}{\contentsline {section}{\numberline {2}Autocorrelations}{2}}
\newlabel{sec:results2}{{2}{2}}
\@writefile{lof}{\contentsline {figure}{\numberline {2}{\ignorespaces On the left is shown the autocorrelation and on the right the partial autocorrelation function.}}{2}}
\newlabel{fig:results}{{2}{2}}
\@writefile{toc}{\contentsline {section}{\numberline {3}Coefficient Estimation from scratch}{2}}
\newlabel{sec:data2}{{3}{2}}
\@writefile{toc}{\contentsline {section}{\numberline {4}Coefficient Estimation}{4}}
\newlabel{sec:data3}{{4}{4}}
\newlabel{sec:results3}{{4}{5}}
\@writefile{lof}{\contentsline {figure}{\numberline {3}{\ignorespaces The upper plot represents the autocorrelation and the lower the partial autocorrelation for the residuals of the ARMA(3,2) model.}}{5}}
\newlabel{fig:results3}{{3}{5}}
\@writefile{toc}{\contentsline {section}{\numberline {5}Artificial ARMA(p,q) Series}{5}}
\newlabel{sec:results4}{{5}{5}}
\@writefile{lof}{\contentsline {figure}{\numberline {4}{\ignorespaces Plots of the real data is on the left hand side and plots of the simulated data is on the right hand side. Note that there are quite some differences between real GDP and simulated GDP returns.}}{6}}
\newlabel{fig:results}{{4}{6}}
\@writefile{toc}{\contentsline {section}{\numberline {6}Prediction}{6}}
\newlabel{sec:results5}{{6}{6}}
\newlabel{sec:results6}{{6}{6}}
\@writefile{lof}{\contentsline {figure}{\numberline {5}{\ignorespaces Above is shown the full range of the actual and the predicted returns. The lower graph is a zoom of the above for the last 20 time steps.}}{7}}
\newlabel{fig:results}{{5}{7}}
\@writefile{lof}{\contentsline {figure}{\numberline {6}{\ignorespaces The same as figure 5 but for the prediction index.}}{8}}
\newlabel{fig:results}{{6}{8}}
