Completed Date ; Description ; Paid Out (CHF) ; Paid In (CHF) ; Exchange Out; Exchange In; Balance (CHF); Category; Notes
Sep 28, 2018 ; From Markus Philipp Baden  ;  ; 22,30 ;  ;  ; 475,25; transfers; 
Sep 15, 2018 ; Exchange CHF to  FX Rate Fr1 = €0.8836 ; 4.000,00 ;  ;  CHF 4.000,00 ;  ; 452,95; general; 
Sep 15, 2018 ; Payment from Daniel Braitsch  ;  ; 4.000,00 ;  ;  ; 4.452,95; general; 
Sep 12, 2018 ; Migros  ; 9,65 ;  ;  ;  ; 452,95; groceries; 
Sep 11, 2018 ; Coop Bau+Hobby Winterthur Töss  ; 4,40 ;  ;  ;  ; 462,60; groceries; 
