\relax 
\select@language{english}
\@writefile{toc}{\select@language{english}}
\@writefile{lof}{\select@language{english}}
\@writefile{lot}{\select@language{english}}
\@writefile{toc}{\contentsline {section}{\numberline {1}Data}{1}}
\newlabel{sec:data1}{{1}{1}}
\@writefile{toc}{\contentsline {section}{\numberline {2}The equal weights portfolio}{1}}
\newlabel{sec:data1}{{2}{1}}
\@writefile{toc}{\contentsline {section}{\numberline {3}Minimal Risk and feasible set}{2}}
\newlabel{sec:data1}{{3}{2}}
\newlabel{sec:results1}{{3}{2}}
\@writefile{toc}{\contentsline {section}{\numberline {4}The MAD Portfolio (non-linear)}{2}}
\newlabel{sec:data1}{{4}{2}}
\@writefile{lof}{\contentsline {figure}{\numberline {1}{\ignorespaces Visualization of the feasible set.}}{3}}
\newlabel{fig:results}{{1}{3}}
\newlabel{sec:results1}{{4}{3}}
\@writefile{toc}{\contentsline {section}{\numberline {5}The linearized MAD Portfolio}{3}}
\newlabel{sec:data1}{{5}{3}}
\@writefile{lof}{\contentsline {figure}{\numberline {2}{\ignorespaces Visualization of the feasible set.}}{4}}
\newlabel{fig:results}{{2}{4}}
\newlabel{sec:results1}{{5}{5}}
\@writefile{lof}{\contentsline {figure}{\numberline {3}{\ignorespaces Visualization of the feasible set.}}{5}}
\newlabel{fig:results}{{3}{5}}
\@writefile{toc}{\contentsline {section}{\numberline {6}Application}{5}}
\newlabel{sec:data1}{{6}{5}}
\newlabel{sec:results1}{{6}{6}}
\@writefile{lof}{\contentsline {figure}{\numberline {4}{\ignorespaces Visualization of the feasible set.}}{6}}
\newlabel{fig:results}{{4}{6}}
