\relax 
\select@language{english}
\@writefile{toc}{\select@language{english}}
\@writefile{lof}{\select@language{english}}
\@writefile{lot}{\select@language{english}}
\@writefile{toc}{\contentsline {section}{\numberline {1}Example}{1}}
\@writefile{toc}{\contentsline {subsection}{\numberline {1.1}Data}{1}}
\newlabel{sec:data}{{1.1}{1}}
\@writefile{toc}{\contentsline {subsection}{\numberline {1.2}Results}{1}}
\newlabel{sec:results}{{1.2}{1}}
\@writefile{lof}{\contentsline {figure}{\numberline {1}{\ignorespaces Artificial Returns.}}{1}}
\newlabel{fig:results}{{1}{1}}
\@writefile{toc}{\contentsline {subsection}{\numberline {1.3}Results part 1}{2}}
\newlabel{sec:results}{{1.3}{2}}
\@writefile{lof}{\contentsline {figure}{\numberline {2}{\ignorespaces Probability density function.}}{3}}
\newlabel{fig:results}{{2}{3}}
