Transaction Date	 Posting Date	 Card Number 	Billing Amount	 Description	 Merchant City 	 Merchant State 	 Merchant Zip 	 Reference Number 	 Debit/Credit Flag 	 SICMCC Code
19.08.2018	20.08.2018	8391	CHF203.70	"Revolut*5522* revolut.com"	"revolut.com"		E14 3RU	 "05416128232003309145902"	D	6012
17.08.2018	19.08.2018	8391	CHF203.70	"Revolut*5522* revolut.com"	"revolut.com"		E14 3RU	 "05416128230003299880809"	D	6012
16.08.2018	17.08.2018	8391	CHF203.70	"Revolut*5522* revolut.com"	"revolut.com"		E14 3RU	 "05416128229003294933689"	D	6012
13.08.2018	14.08.2018	8391	CHF70.00	"SBB CFF FFS Ticket Sho Bern CHE"	"Bern"	CHE	3000	 "05404438225081305082341"	D	4789
