Exportiert am  31.10.2018 / 18:57 MEZ;;;;
Buchungen suchen;;;;
Kontodetails;;;;
Konto;"Privatkonto Viva Student Daniel Braitsch; Winterthur ";Saldo;CHF 40240.11;;
IBAN;CH94 0483 5151 0235 0000 0;BIC ;CRESCHZZ80A;;
Buchungen;;;
Buchungsdatum;Text;Belastung;Gutschrift;Valutadatum;Saldo
29.08.2018;"Zahlung Ausland;Revolut LDT; Level 39; 1 Canada Squa";1000.00;;29.08.2018;41909.82
28.08.2018;"Maestro-Zahlung CHF;15702852-0 STREET-FOOD";9.00;;28.08.2018;42909.82
28.08.2018;"Clearing-Zahlung;D FINE AG BRANDSCHENKESTRASSE 150 80";;6505.65;28.08.2018;
27.08.2018;"Einzug LSV;SWISSCARD AECS GMBH HORGEN";681.10;;27.08.2018;36413.17
20.08.2018;"Zahlung Inland - ESR;Halbtax Erneuerung";165.00;;20.08.2018;37094.27
17.08.2018;"Clearing-Zahlung;D FINE AG BRANDSCHENKESTRASSE 150 80";;5214.44;17.08.2018;37259.27
16.08.2018;"Zahlung Inland - ESR;Handyrechnung Juni";88.00;;16.08.2018;32044.83
13.08.2018;"Maestro-Zahlung CHF;15702852-0 PHARMACIE-PARF. SUNS";9.20;;13.08.2018;32132.83
13.08.2018;"Zahlung Ausland;Revolut LDT; Level 39; 1 Canada Squa";10.00;;13.08.2018;
13.08.2018;"Maestro-Zahlung CHF;15702852-0 MIGROS MM PLAINPALAI";41.65;;13.08.2018;
13.08.2018;"Maestro-Zahlung CHF;15702852-0 BERDOZ OPTIC";153.00;;13.08.2018;
09.08.2018;"Maestro-Zahlung CHF;15702852-0 DA PEPPE";19.00;;09.08.2018;32346.68
07.08.2018;"Maestro-Zahlung CHF;15702852-0 DENNER GE-PLAINPALAI";10.75;;07.08.2018;32365.68
07.08.2018;"Maestro-Zahlung CHF;15702852-0 RESTAURANT BANG YAI";25.00;;07.08.2018;
06.08.2018;"Maestro-Zahlung CHF;15702852-0 Pouly SA 4569";4.10;;06.08.2018;32401.43
06.08.2018;"Maestro-Zahlung CHF;15702852-0 MIGROS MM PLAINPALAI";25.40;;06.08.2018;
06.08.2018;"Maestro-Zahlung CHF;15702852-0 DENNER GE-PLAINPALAI";36.70;;06.08.2018;
06.08.2018;"Zahlung Inland - ESR;Kreditkartenrechnung Juli";5608.60;;06.08.2018;
03.08.2018;"Maestro-Zahlung CHF;15702852-0 RESTAURANT BANG YAI";26.00;;03.08.2018;38076.23
03.08.2018;"Maestro-Zahlung CHF;15702852-0 DENNER GE-PLAINPALAI";26.15;;03.08.2018;
02.08.2018;"Dauerauftrag;MIETE WOHNUNG";950.00;;02.08.2018;38128.38
Total Spalte;;8888.65;11720.09;;
