Completed Date ; Description ; Paid Out (CHF) ; Paid In (CHF) ; Exchange Out; Exchange In; Balance (CHF); Category; Notes
Aug 30, 2018 ; Exchange CHF to  FX Rate Fr1 = €0.8815 ; 1.000,00 ;  ;  CHF 1.000,00 ;  ; 467,00; general; 
Aug 30, 2018 ; Payment from Daniel Braitsch  ;  ; 1.000,00 ;  ;  ; 1.467,00; general; 
Aug 29, 2018 ; From Akin Achim Wingerter  ;  ; 25,00 ;  ;  ; 467,00; transfers; 
Aug 29, 2018 ; Exchange CHF to  FX Rate Fr1 = €0.8769 ; 568,00 ;  ;  CHF 568,00 ;  ; 442,00; general; 
Aug 19, 2018 ; Top-Up by *8391 Fee: 3.68 ;  ; 200,00 ;  ;  ; 1.010,00; general; 
Aug 19, 2018 ; Top-Up by *5214 Fee: 2.57 ;  ; 200,00 ;  ;  ; 810,00; general; 
Aug 18, 2018 ; Top-Up by *5214 Fee: 2.57 ;  ; 200,00 ;  ;  ; 610,00; general; 
Aug 17, 2018 ; Top-Up by *8391 Fee: 3.68 ;  ; 200,00 ;  ;  ; 410,00; general; 
Aug 16, 2018 ; Top-Up by *8391 Fee: 3.68 ;  ; 200,00 ;  ;  ; 210,00; general; 
Aug 14, 2018 ; Payment from Daniel Braitsch  ;  ; 10,00 ;  ;  ; 10,00; general; 
